…
print(city_models)
```

    ## # A tibble: 47 × 4
    ## # Groups:   city_state [47]
    ##    city_state      estimate conf.low conf.high
    ##    <chr>              <dbl>    <dbl>     <dbl>
    ##  1 Albuquerque, NM    1.14     0.963     1.35 
    ##  2 Atlanta, GA        1.00     0.915     1.09 
    ##  3 Baltimore, MD      0.816    0.766     0.868
    ##  4 Baton Rouge, LA    0.802    0.702     0.917
    ##  5 Birmingham, AL     0.967    0.874     1.07 
    ##  6 Boston, MA         0.921    0.803     1.06 
    ##  7 Buffalo, NY        0.859    0.751     0.982
    ##  8 Charlotte, NC      0.977    0.895     1.07 
    ##  9 Chicago, IL        0.822    0.788     0.857
    ## 10 Cincinnati, OH     0.825    0.739     0.921
    ## # ℹ 37 more rows
…
